\relax 
\providecommand\hyper@newdestlabel[2]{}
\providecommand\HyperFirstAtBeginDocument{\AtBeginDocument}
\HyperFirstAtBeginDocument{\ifx\hyper@anchor\@undefined
\global\let\oldcontentsline\contentsline
\gdef\contentsline#1#2#3#4{\oldcontentsline{#1}{#2}{#3}}
\global\let\oldnewlabel\newlabel
\gdef\newlabel#1#2{\newlabelxx{#1}#2}
\gdef\newlabelxx#1#2#3#4#5#6{\oldnewlabel{#1}{{#2}{#3}}}
\AtEndDocument{\ifx\hyper@anchor\@undefined
\let\contentsline\oldcontentsline
\let\newlabel\oldnewlabel
\fi}
\fi}
\global\let\hyper@last\relax 
\gdef\HyperFirstAtBeginDocument#1{#1}
\providecommand\HyField@AuxAddToFields[1]{}
\providecommand\HyField@AuxAddToCoFields[2]{}
\citation{andreas3}
\citation{andreas4}
\citation{andreas5}
\citation{bresler6}
\citation{bresler2}
\citation{bresler3}
\citation{bresler2}
\citation{andreas1}
\citation{bresler7}
\citation{bresler8}
\citation{bresler7}
\citation{bresler8}
\citation{bresler2}
\citation{bresler3}
\citation{bresler9}
\citation{bresler4}
\citation{bresler5}
\citation{bresler2}
\citation{bresler3}
\citation{andreas2}
\@writefile{toc}{\contentsline {section}{\numberline {1}Project Description}{\thepage }{section.1}}
\@writefile{toc}{\contentsline {section}{\numberline {2}Problem Statement}{\thepage }{section.2}}
\@writefile{toc}{\contentsline {subsection}{\numberline {2.1}Work Allocation}{\thepage }{subsection.2.1}}
\citation{S11}
\citation{S22}
\citation{S8}
\citation{S17}
\citation{S17}
\citation{S17}
\citation{bresler12}
\citation{andreas5}
\citation{andreas5}
\citation{bresler26}
\citation{bresler15}
\citation{bresler14}
\citation{bresler14}
\citation{bresler26}
\citation{bresler12}
\citation{andreas5}
\citation{bresler12}
\citation{ndltd}
\citation{powell1998multilingual}
\citation{powell1998multilingual}
\citation{andreas7}
\citation{andreas7}
\citation{andreas7}
\citation{gamesbook}
\citation{uctstudy}
\citation{husseingame}
\citation{husseingame}
\citation{gamesbook}
\@writefile{toc}{\contentsline {subsection}{\numberline {2.2}Aims}{\thepage }{subsection.2.2}}
\@writefile{toc}{\contentsline {subsection}{\numberline {2.3}Research Questions}{\thepage }{subsection.2.3}}
\@writefile{toc}{\contentsline {section}{\numberline {3}Related Work}{\thepage }{section.3}}
\@writefile{toc}{\contentsline {subsection}{\numberline {3.1}Language Identification}{\thepage }{subsection.3.1}}
\@writefile{toc}{\contentsline {subsection}{\numberline {3.2}Web Crawler}{\thepage }{subsection.3.2}}
\@writefile{toc}{\contentsline {subsection}{\numberline {3.3}Search Feature}{\thepage }{subsection.3.3}}
\@writefile{toc}{\contentsline {subsection}{\numberline {3.4}Web Portal}{\thepage }{subsection.3.4}}
\@writefile{toc}{\contentsline {subsection}{\numberline {3.5}Gamification}{\thepage }{subsection.3.5}}
\@writefile{toc}{\contentsline {section}{\numberline {4}Procedures and Methods}{\thepage }{section.4}}
\@writefile{toc}{\contentsline {subsection}{\numberline {4.1}Portal Features}{\thepage }{subsection.4.1}}
\@writefile{lof}{\contentsline {figure}{\numberline {1}{\ignorespaces Search Interface of NDLTD Global ETD Search}}{\thepage }{figure.1}}
\newlabel{fig:searching}{{1}{\thepage }{Search Interface of NDLTD Global ETD Search}{figure.1}{}}
\@writefile{toc}{\contentsline {subsection}{\numberline {4.2}Gamification Features}{\thepage }{subsection.4.2}}
\newlabel{sec:gamification}{{4.2}{\thepage }{Gamification Features}{subsection.4.2}{}}
\@writefile{toc}{\contentsline {subsection}{\numberline {4.3}Web Crawling Features}{\thepage }{subsection.4.3}}
\citation{oshernew}
\citation{bresler17}
\citation{bresler42}
\citation{bresler17}
\citation{andreas10}
\@writefile{lof}{\contentsline {figure}{\numberline {2}{\ignorespaces SALANG Project Overview}}{\thepage }{figure.2}}
\newlabel{fig:overview}{{2}{\thepage }{SALANG Project Overview}{figure.2}{}}
\@writefile{toc}{\contentsline {subsection}{\numberline {4.4}System Evaluation}{\thepage }{subsection.4.4}}
\@writefile{toc}{\contentsline {section}{\numberline {5}Ethical, Professional and Legal Issues}{\thepage }{section.5}}
\@writefile{toc}{\contentsline {subsection}{\numberline {5.1}Ethical Clearance}{\thepage }{subsection.5.1}}
\@writefile{toc}{\contentsline {section}{\numberline {6}Anticipated Outcomes}{\thepage }{section.6}}
\@writefile{toc}{\contentsline {subsection}{\numberline {6.1}Expected Results}{\thepage }{subsection.6.1}}
\@writefile{toc}{\contentsline {subsection}{\numberline {6.2}Key Success Factors}{\thepage }{subsection.6.2}}
\@writefile{toc}{\contentsline {section}{\numberline {7}Project Plan}{\thepage }{section.7}}
\@writefile{toc}{\contentsline {subsection}{\numberline {7.1}Risk Matrix}{\thepage }{subsection.7.1}}
\@writefile{toc}{\contentsline {subsubsection}{\numberline {7.1.1}Resources}{\thepage }{subsubsection.7.1.1}}
\@writefile{toc}{\contentsline {subsubsection}{\numberline {7.1.2}Development}{\thepage }{subsubsection.7.1.2}}
\@writefile{toc}{\contentsline {subsubsection}{\numberline {7.1.3}Schedule}{\thepage }{subsubsection.7.1.3}}
\@writefile{toc}{\contentsline {subsubsection}{\numberline {7.1.4}Project Scope}{\thepage }{subsubsection.7.1.4}}
\@writefile{toc}{\contentsline {subsection}{\numberline {7.2}Gantt Chart}{\thepage }{subsection.7.2}}
\@writefile{lof}{\contentsline {figure}{\numberline {3}{\ignorespaces Gantt Chart of Overall Project}}{\thepage }{figure.3}}
\newlabel{fig:biggchart}{{3}{\thepage }{Gantt Chart of Overall Project}{figure.3}{}}
\@writefile{lof}{\contentsline {figure}{\numberline {4}{\ignorespaces Gantt Chart of Search Functionality}}{\thepage }{figure.4}}
\newlabel{fig:searchchart}{{4}{\thepage }{Gantt Chart of Search Functionality}{figure.4}{}}
\@writefile{lof}{\contentsline {figure}{\numberline {5}{\ignorespaces Gantt Chart of the Portal Functionality}}{\thepage }{figure.5}}
\newlabel{fig:portalchart}{{5}{\thepage }{Gantt Chart of the Portal Functionality}{figure.5}{}}
\@writefile{lof}{\contentsline {figure}{\numberline {6}{\ignorespaces Gantt Chart of the Web Crawler Functionality}}{\thepage }{figure.6}}
\newlabel{fig:crawlerchart}{{6}{\thepage }{Gantt Chart of the Web Crawler Functionality}{figure.6}{}}
\citation{bootstrap}
\citation{angularjs}
\bibstyle{abbrv}
\bibdata{sigproc}
\bibcite{ndltd}{1}
\bibcite{bresler7}{2}
\bibcite{bresler8}{3}
\bibcite{bresler14}{4}
\bibcite{bresler26}{5}
\bibcite{bresler4}{6}
\bibcite{S8}{7}
\bibcite{bresler6}{8}
\bibcite{bresler17}{9}
\bibcite{andreas2}{10}
\bibcite{bresler5}{11}
\bibcite{bresler42}{12}
\bibcite{S11}{13}
\bibcite{angularjs}{14}
\bibcite{husseingame}{15}
\bibcite{andreas10}{16}
\bibcite{bresler12}{17}
\bibcite{andreas3}{18}
\bibcite{S17}{19}
\bibcite{oshernew}{20}
\@writefile{toc}{\contentsline {subsection}{\numberline {7.3}Resources Required}{\thepage }{subsection.7.3}}
\@writefile{toc}{\contentsline {subsection}{\numberline {7.4}Milestones}{\thepage }{subsection.7.4}}
\@writefile{lot}{\contentsline {table}{\numberline {1}{\ignorespaces Milestones and Due Dates}}{\thepage }{table.1}}
\newlabel{fig:milestones}{{1}{\thepage }{Milestones and Due Dates}{table.1}{}}
\@writefile{toc}{\contentsline {section}{\numberline {8}Acknowledgments}{\thepage }{section.8}}
\@writefile{toc}{\contentsline {section}{\numberline {9}References}{\thepage }{section.9}}
\bibcite{andreas1}{21}
\bibcite{uctstudy}{22}
\bibcite{andreas4}{23}
\bibcite{bresler2}{24}
\bibcite{andreas5}{25}
\bibcite{bresler3}{26}
\bibcite{bootstrap}{27}
\bibcite{andreas7}{28}
\bibcite{powell1998multilingual}{29}
\bibcite{bresler15}{30}
\bibcite{S22}{31}
\bibcite{bresler9}{32}
\bibcite{gamesbook}{33}
